\relax 
\catcode `:\active 
\catcode `;\active 
\catcode `!\active 
\catcode `?\active 
\babel@aux{french}{}
\@writefile{toc}{\contentsline {section}{\numberline {1}Expression analytique d'une rotation}{1}}
\providecommand*\caption@xref[2]{\@setref\relax\@undefined{#1}}
\newlabel{fig_point}{{1a}{1}}
\newlabel{sub@fig_point}{{(a)}{a}}
\newlabel{fig_point_2_vec}{{1b}{1}}
\newlabel{sub@fig_point_2_vec}{{(b)}{b}}
\@writefile{lof}{\contentsline {figure}{\numberline {1}{\ignorespaces \relax }}{1}}
\@writefile{lof}{\contentsline {subfigure}{\numberline{(a)}{\ignorespaces {}}}{1}}
\@writefile{lof}{\contentsline {subfigure}{\numberline{(b)}{\ignorespaces {}}}{1}}
\@writefile{lof}{\contentsline {figure}{\numberline {2}{\ignorespaces Rotation d'un point M\relax }}{2}}
\@writefile{toc}{\contentsline {section}{\numberline {2}D\'emonstration des formules}{3}}
\@writefile{lof}{\contentsline {figure}{\numberline {3}{\ignorespaces Deux rotations successives d'angle $\alpha $ et $\beta $ ou alors une rotation d'angle ($\alpha + \beta $)\relax }}{3}}
\newlabel{eq0}{{2}{3}}
\newlabel{eq1}{{2}{3}}
